Homework 05
…
d3

# A tibble: 29 × 3
   country  mean pred_mean
     <dbl> <dbl>     <dbl>
 1       8  6.87      6.68
 2      21  6.70      6.50
 3      11  6.64      6.45
 4      25  6.45      6.35
 5      20  5.92      5.89
 6      19  6         5.79
 7       4  5.81      5.74
 8      17  5.8       5.35
 9       9  5.62      5.35
10      13  5.35      5.34
# ℹ 19 more rows
…
